Name,Division,Sex,WeightClassKg,Event,Equipment,Squat1Kg,Squat2Kg,Best3SquatKg,Bench1Kg,Bench2Kg,Bench3Kg,Best3BenchKg,Deadlift1Kg,Deadlift2Kg,Deadlift3Kg,Best3DeadliftKg,TotalKg,Team,Place
Gabrielle Reverte,FT 16-17,F,52,SBD,Wraps,,,,,,,,,,,,162.5,Reverte,1
Victoria Figueiredo,FT 18-19,F,56,SBD,Wraps,,,,,,,,,,,,,,DQ
Priscila Costa,FJ,F,56,SBD,Wraps,,,,,,,,,,,,330,Monsters,1
Fernanda Maria Montanha da Silva,FJ,F,67.5,SBD,Wraps,,,,,,,,,,,,347.5,Super Força,1
Letícia Matioli Andrade,FO,F,60,SBD,Wraps,,,,,,,,,,,,322.5,Saúde Ativa,1
Karina Suzart,FO,F,60,SBD,Wraps,,,,,,,,,,,,260,,2
Ellen Pereira Santos,FO,F,67.5,SBD,Wraps,,,,,,,,,,,,430,,1
Vânia Lima,FO,F,67.5,SBD,Wraps,,,,,,,,,,,,405,Reforce,2
Cristina Pimenta,FO,F,67.5,SBD,Wraps,,,,,,,,,,,,375,,3
Bruna Soares Da Costa,FO,F,67.5,SBD,Wraps,,,,,,,,,,,,280,Apollo,4
Alcione Silva,FO,F,75,SBD,Wraps,,,,,,,,,,,,440,Apollo,1
Angelica Rao Ribeiro,FO,F,75,SBD,Wraps,,,,,,,,,,,,245,Reverte,2
Carla Pádua Garcia,FO,F,82.5,SBD,Wraps,,,,,,,,,,,,532.5,Saúde Ativa,1
Raquel Christina Fernandes Rodrigues,FO,F,82.5,SBD,Wraps,,,,,,,,,,,,422.5,Reverte,2
Alba Pontes Da Silva,FO,F,82.5,SBD,Wraps,,,,,,,,,,,,382.5,,3
Gabriela Rita Ramos Santos,FO,F,82.5,SBD,Wraps,,,,,,,,,,,,367.5,Reverte,4
Monica Aparecida Nogueira,FO,F,82.5,SBD,Wraps,,,,,,,,,,,,355,Monsters,5
Rafaela Climaco dos Santos,F 40-44,F,67.5,SBD,Wraps,,,,,,,,,,,,315,Apollo,1
Débora Ribeiro Machado,F 40-44,F,75,SBD,Wraps,,,,,,,,,,,,367.5,Apollo,1
Gislaine Dias Micheletti,F 40-44,F,100,SBD,Wraps,,,,,,,,,,,,407.5,,1
Flávia de Lima Funari,F 45-49,F,56,SBD,Wraps,,,,,,,,,,,,295,Reverte,1
Rosimeire Dos Santos Souza,F 45-49,F,56,SBD,Wraps,,,,,,,,,,,,250,Apollo,2
Mara Marinho,F 45-49,F,67.5,SBD,Wraps,,,,,,,,,,,,260,Apollo,1
Bruno De Lima Assis,MO ES,M,75,SBD,Wraps,,,,,,,,,,,,375,Gbstrong,1
Williams Gomes da Silva,MO ES,M,90,SBD,Wraps,,,,,,,,,,,,455,Apollo,2
Eduardo Arenas,MO ES,M,100,SBD,Wraps,,,,,,,,,,,,645,,1
Luiz Carlos Rufino da Silva,MO ES,M,90,SBD,Wraps,,,,,,,,,,,,535,Reverte,1
Alex Henrique Soares Gomes,MO ES,M,110,SBD,Wraps,,,,,,,,,,,,655,Reforce,1
Marcelo Barreto,MT 13-15,M,82.5,SBD,Wraps,,,,,,,,,,,,280,Reverte,1
Gustavo Rodrigues,MT 16-17,M,60,SBD,Wraps,,,,,,,,,,,,325,Reverte,1
Bruno Cunha Dos Santos Teixeira,MT 16-17,M,67.5,SBD,Wraps,,,,,,,,,,,,290,Reverte,1
Pedro Moreira,MT 16-17,M,75,SBD,Wraps,,,,,,,,,,,,430,Reverte,1
Alexander Henrique Manrique de Lima,MT 16-17,M,100,SBD,Wraps,,,,,,,,,,,,492.5,Beto Ninja,1
Bruno Mauricio Neves Vilar,MT 16-17,M,100,SBD,Wraps,,,,,,,,,,,,472.5,,2
Eduardo Antônio Oliveira Cavalheiro,MT 18-19,M,110,SBD,Wraps,,,,,,,,,,,,490,World Power,1
Breno Augusto Gonçalves Félix,MJ,M,67.5,SBD,Wraps,,,,,,,,,,,,450,Team Caveira,1
David Nascimento,MJ,M,75,SBD,Wraps,,,,,,,,,,,,570,Blitzkrieg,1
Leonardo Carlos da Silva,MJ,M,82.5,SBD,Wraps,,,,,,,,,,,,580,Reforce,1
André Contes de Oliveira,MJ,M,82.5,SBD,Wraps,,,,,,,,,,,,515,Reverte,2
Victor Dick,MJ,M,90,SBD,Wraps,,,,,,,,,,,,600,Santos FC,1
Thiago de Oliveira Carvalho,MJ,M,90,SBD,Wraps,,,,,,,,,,,,590,Reforce,2
Patrick Souza Morais,MJ,M,90,SBD,Wraps,,,,,,,,,,,,550,Apollo,3
Pablo Reino Pagotto,MJ,M,90,SBD,Wraps,,,,,,,,,,,,415,Bruto Memo,4
Davyd Vieira Reis,MJ,M,100,SBD,Wraps,,,,,,,,,,,,605,Blitzkrieg,1
Henrique Nunes de Souza,MJ,M,100,SBD,Wraps,,,,,,,,,,,,602.5,HN Team,2
Guilherme Olegario,MJ,M,100,SBD,Wraps,,,,,,,,,,,,575,Apollo,3
Leonardo de Almeida Ferreira,MJ,M,100,SBD,Wraps,,,,,,,,,,,,562.5,Beto Ninja,4
Vinicius Soares Teixeira,MJ,M,110,SBD,Wraps,,,,,,,,,,,,587.5,,1
Thiago Sousa de Oliveira,MJ,M,110,SBD,Wraps,,,,,,,,,,,,525,Bruto Memo,2
Felipe Henrique Porfírio,MJ,M,110,SBD,Wraps,,,,,,,,,,,,355,Beto Ninja,3
Eduardo José de Souza,MJ,M,125,SBD,Wraps,,,,,,,,,,,,590,Kf fitness,1
Waltemberg Da Silva Hilário,MO,M,67.5,SBD,Wraps,,,,,,,,,,,,525,,1
Eduardo Henrique da Silva,MO,M,67.5,SBD,Wraps,,,,,,,,,,,,460,Guerreiro do Supino,2
Robson Rodrigues da Silva,MO,M,67.5,SBD,Wraps,,,,,,,,,,,,335,Maximus,3
Bruno Martins da Luz,MO,M,75,SBD,Wraps,,,,,,,,,,,,657.5,Team Caveira,1
Rodrigo Pita Teodoro,MO,M,75,SBD,Wraps,,,,,,,,,,,,575,Apollo,2
Anderson Genuíno dos Reis,MO,M,75,SBD,Wraps,,,,,,,,,,,,545,Maximus,3
Raylson Silva Batista Machado,MO,M,75,SBD,Wraps,,,,,,,,,,,,535,Saúde Ativa,4
Valdir Donizete,MO,M,75,SBD,Wraps,,,,,,,,,,,,320,,5
Hilton Mazzaro Otaviano,MO,M,82.5,SBD,Wraps,,,,,,,,,,,,615,Monsters,1
Luiz Lima Bezerra,MO,M,82.5,SBD,Wraps,,,,,,,,,,,,595,Maximus,2
Makson Pereira dos Santos,MO,M,82.5,SBD,Wraps,,,,,,,,,,,,560,,3
Igor Domingos Costa,MO,M,82.5,SBD,Wraps,,,,,,,,,,,,,Monsters,DQ
Paulo Sergio da Silva,MO,M,90,SBD,Wraps,,,,,,,,,,,,535,Reverte,1
Lucas Ferro,MO,M,90,SBD,Wraps,,,,,,,,,,,,,Blitzkrieg,DQ
Dione César Teodoro,MO,M,100,SBD,Wraps,,,,,,,,,,,,762.5,Saúde Ativa,1
Daniel Henrique Batista,MO,M,100,SBD,Wraps,,,,,,,,,,,,640,Super Força,2
Leonardo Rodrigues Toledo,MO,M,100,SBD,Wraps,,,,,,,,,,,,605,Blitzkrieg,3
Osmar Douglas Nascimento,MO,M,100,SBD,Wraps,,,,,,,,,,,,505,World Power,4
Antonio Flavio Bortolucci,MO,M,100,SBD,Wraps,,,,,,,,,,,,500,Super Força,5
Wesley Mesquita Salatiel,MO,M,110,SBD,Wraps,,,,,,,,,,,,745,Uberlândia Barbell,1
Jézer Gomes Gonçalves,MO,M,110,SBD,Wraps,,,,,,,,,,,,700,Saúde Ativa,2
Marcelo Diego Detomazi,MO,M,110,SBD,Wraps,,,,,,,,,,,,685,Monsters,3
Bruno Cleiton da Silva,MO,M,110,SBD,Wraps,,,,,,,,,,,,620,Beto Ninja,4
Carlos Roberto Antunes Júnior,MO,M,110,SBD,Wraps,,,,,,,,,,,,452.5,Beto Ninja,5
Clayton Barbetta,MO,M,110,SBD,Wraps,,,,,,,,,,,,,Strong Monsters,DQ
Estevão Martins da Silva,MO,M,125,SBD,Wraps,320,330,330,205,215,217.5,217.5,350,365,375,375,922.5,Super Força,1
Marcos Ferrari,MO,M,125,SBD,Wraps,,,,,,,,,,,,900,Strong Monsters,2
Sinuhe Ceoto,MO,M,125,SBD,Wraps,,,,,,,,,,,,782.5,Blitzkrieg,3
Israel Comelli,MO,M,140,SBD,Wraps,,,,,,,,,,,,870,Beto Ninja,1
Marcos Diego Contato,MO,M,140,SBD,Wraps,,,,,,,,,,,,730,Beto Ninja,2
Fernando Barros Innocente,MO,M,140,SBD,Wraps,,,,,,,,,,,,640,World Power,3
Paulo Thiago Siqueira Assoni,MO,M,140+,SBD,Wraps,,,,,,,,,,,,885,Monsters,1
Jaime Ferreira Reverte,M 40-44,M,82.5,SBD,Wraps,,,,,,,,,,,,607.5,Reverte,1
Frotta Aro,M 40-44,M,90,SBD,Wraps,,,,,,,,,,,,560,Reverte,1
Jose Eucleio Rodrigues,M 40-44,M,90,SBD,Wraps,,,,,,,,,,,,500,Reverte,2
Milton Leopoldino De Albuquerque Neto,M 40-44,M,100,SBD,Wraps,,,,,,,,,,,,505,Apollo,1
Estefanio Climaco Dos Santos,M 40-44,M,110,SBD,Wraps,,,,,,,,,,,,590,Apollo,1
Sandro Gonzaga Siqueira,M 45-49,M,67.5,SBD,Wraps,,,,,,,,,,,,395,Reverte,1
Claudemir Alexandre de Souza Pereira,M 45-49,M,75,SBD,Wraps,,,,,,,,,,,,360,Reverte,1
José Roberto Machado Junior,M 45-49,M,82.5,SBD,Wraps,,,,,,,,,,,,490,Apollo,1
Arnaldo Luiz Armiliato Costa,M 45-49,M,90,SBD,Wraps,,,,,,,,,,,,562.5,,1
Alberto Carlos Seabra Norce,M 45-49,M,100,SBD,Wraps,,,,,,,,,,,,525,Beto Ninja,1
Marco Aurelio Gomes de Lima,M 45-49,M,110,SBD,Wraps,,,,,,,,,,,,637.5,Apollo,1
Gustavo Camargo,M 45-49,M,110,SBD,Wraps,,,,,,,,,,,,620,Saúde Ativa,2
Marcelo Cesar de Oliveira,M 45-49,M,110,SBD,Wraps,,,,,,,,,,,,600,Bruto Memo,3
Marcio Rogério de Lima,M 45-49,M,125,SBD,Wraps,,,,,,,,,,,,785,Reforce,1
Fernando Berto da Silva,M 45-49,M,140,SBD,Wraps,,,,,,,,,,,,402.5,Apollo,1
André Leal Madeira,M 50-54,M,82.5,SBD,Wraps,,,,,,,,,,,,385,Santos FC,1
Paulo dos Santos Silva,M 50-54,M,100,SBD,Wraps,,,,,,,,,,,,392.5,Apollo,1
Jose Angelito Duarte dos Santos,M 50-54,M,110,SBD,Wraps,,,,,,,,,,,,480,Apollo,1
Olivio Rios,M 65-69,M,82.5,SBD,Wraps,,,,,,,,,,,,310,,1
Claudio Cunha,M 70-74,M,75,SBD,Wraps,,,,,,,,,,,,265,Reverte,1
Serafim Rocha,M 70-74,M,110,SBD,Wraps,,,,,,,,,,,,402.5,Reforce,1
